\relax 
\@writefile{toc}{\contentsline {section}{\numberline {}초록}{1}{}}
\@writefile{toc}{\contentsline {section}{\numberline {}개요}{1}{}}
\@writefile{toc}{\contentsline {section}{\numberline {}이론적 분석}{1}{}}
\@writefile{toc}{\contentsline {subsection}{\numberline {}오일러의 방법}{1}{}}
\@writefile{toc}{\contentsline {subsection}{\numberline {}\textbf  {룽게-쿠다 방법}}{1}{}}
\newlabel{eq:en1}{{4}{1}{}{}{}}
\newlabel{eq:1}{{5}{1}{}{}{}}
\newlabel{eq:2}{{6}{1}{}{}{}}
\@writefile{toc}{\contentsline {subsection}{\numberline {}경계 조건 문제}{2}{}}
\newlabel{Eq:Bo}{{7}{2}{}{}{}}
\@writefile{toc}{\contentsline {section}{\numberline {}실험 및 분석}{2}{}}
\newlabel{Eq:Free}{{8}{2}{}{}{}}
\@writefile{toc}{\contentsline {subsection}{\numberline {}오일러의 방법}{2}{}}
\@writefile{toc}{\contentsline {subsection}{\numberline {}룽게-쿠타 방법}{2}{}}
\@writefile{lof}{\contentsline {figure}{\numberline {1}{\ignorespaces 시간에 따른 속력의 그래프. h는 나뉘어진 구간의 최소 길이이다. \relax }}{2}{}}
\providecommand*\caption@xref[2]{\@setref\relax\@undefined{#1}}
\newlabel{Fig:euler}{{1}{2}{}{}{}}
\bibdata{HakSulNotes}
\@writefile{lof}{\contentsline {figure}{\numberline {2}{\ignorespaces 시간에 따른 참 값에 대한 속력의 편차 그래프. h는 나뉘어진 구간의 최소 길이이다.\relax }}{3}{}}
\newlabel{Fig:euler_error}{{2}{3}{}{}{}}
\@writefile{lof}{\contentsline {figure}{\numberline {3}{\ignorespaces 4차 룽게 쿠다 방법을 이용하여 그린 그래프, h는 각 데이터 사이 간격을 의미한다.\relax }}{3}{}}
\newlabel{Fig:vel}{{3}{3}{}{}{}}
\@writefile{lof}{\contentsline {figure}{\numberline {4}{\ignorespaces 실제값과 참값을 비교한 그래프. h는 각 데이터 사이 간격을 의미한다.\relax }}{3}{}}
\newlabel{Fig:error}{{4}{3}{}{}{}}
\@writefile{toc}{\contentsline {subsection}{\numberline {}경계 조건 문제}{3}{}}
\newlabel{Eq:Boundary_p}{{9}{3}{}{}{}}
\@writefile{toc}{\contentsline {section}{\numberline {}결론}{3}{}}
\@writefile{lof}{\contentsline {figure}{\numberline {5}{\ignorespaces t에 따른 u값 그래프. h는 나누어진 구간의 최소 길이이다.\relax }}{3}{}}
\newlabel{Fig:Boundary}{{5}{3}{}{}{}}
\@writefile{lof}{\contentsline {figure}{\numberline {6}{\ignorespaces t에 따른 참 값에 대한 u값의 편차 그래프. h는 나누어진 구간의 최소 길이이다.\relax }}{3}{}}
\newlabel{Fig:Boundary_error}{{6}{3}{}{}{}}
\bibstyle{apsrev4-1}
\citation{REVTEX41Control}
\citation{apsrev41Control}
\@writefile{toc}{\contentsline {section}{\numberline {}References}{4}{}}
\newlabel{LastBibItem}{{0}{4}{}{}{}}
\newlabel{LastPage}{{}{4}{}{}{}}
